auto_ml_cancer
…
Now, lets prepare lime so that it works with H2O model correctly. No one will explain this step better than Matt (the author) himself:

The lime package implements LIME in R. One thing to note is that its not setup out-of-the-box to work with h2o. The good news is with a few functions we can get everything working properly. Well need to make two custom functions:

model_type: Used to tell lime what type of model we are dealing with. It could be classification, regression, survival, etc.

predict_model: Used to allow lime to perform predictions that its algorithm can interpret.

Were nearly there! Lets just define our explainer

predict_model(x = automl_leader, newdata = as.data.frame(test_h2o[,-1]), type = 'raw') %>%
  tibble::as_tibble()

## # A tibble: 100 x 2
##        benign    malignant
##         <dbl>        <dbl>
##  1 0.99912117 0.0008788323
##  2 0.99911889 0.0008811068
##  3 0.86410812 0.1358918824
##  4 0.99884181 0.0011581938
##  5 0.02542826 0.9745717393
##  6 0.01327680 0.9867232037
##  7 0.02752797 0.9724720317
##  8 0.80216260 0.1978373974
##  9 0.99859496 0.0014050448
## 10 0.99271180 0.0072882030
## # ... with 90 more rows
…
