…
All I need to do now is to pick top 30 users based on the score I calculated. Did you manage get onto the top 30 list? :)

``` r
top_30 <- r_users_ranking %>% arrange(desc(top_score)) %>% head(30) %>% arrange(desc(top_score))
top_30 
```

    ## # A tibble: 30 x 3
    ##        screen_name top_score ranking
    ##              <chr>     <dbl>   <dbl>
    ##  1          hspter  4.877005       1
    ##  2    RallidaeRule  4.839572       2
    ##  3         DEJPett  4.771836       3
    ##  4 modernscientist  4.752228       4
    ##  5 nicoleradziwill  4.700535       5
    ##  6      tomhouslay  4.684492       6
    ##  7    ChetanChawla  4.639929       7
    ##  8   TheSmartJokes  4.627451       8
    ##  9   Physical_Prep  4.625668       9
    ## 10       Cataranea  4.602496      10
    ## # ... with 20 more rows
…
